percolate: running on 64 process(es)
percolate: L = 1536, rho = 0.404000, seed = 7777, maxstep = 7680
percolate: rho = 0.404000, actual density = 0.404019
percolate: changes on step 100 is 533991
percolate: changes on step 200 is 490316
percolate: changes on step 300 is 454629
percolate: changes on step 400 is 421876
percolate: changes on step 500 is 404202
percolate: changes on step 600 is 392673
percolate: changes on step 700 is 374100
percolate: changes on step 800 is 364774
percolate: changes on step 900 is 364485
percolate: changes on step 1000 is 361020
percolate: changes on step 1100 is 336020
percolate: changes on step 1200 is 315872
percolate: changes on step 1300 is 298282
percolate: changes on step 1400 is 289254
percolate: changes on step 1500 is 271454
percolate: changes on step 1600 is 251629
percolate: changes on step 1700 is 235027
percolate: changes on step 1800 is 220497
percolate: changes on step 1900 is 211352
percolate: changes on step 2000 is 195343
percolate: changes on step 2100 is 183714
percolate: changes on step 2200 is 178857
percolate: changes on step 2300 is 174945
percolate: changes on step 2400 is 174814
percolate: changes on step 2500 is 176316
percolate: changes on step 2600 is 175166
percolate: changes on step 2700 is 175256
percolate: changes on step 2800 is 164914
percolate: changes on step 2900 is 150883
percolate: changes on step 3000 is 136659
percolate: changes on step 3100 is 131779
percolate: changes on step 3200 is 132670
percolate: changes on step 3300 is 125141
percolate: changes on step 3400 is 129250
percolate: changes on step 3500 is 123986
percolate: changes on step 3600 is 121004
percolate: changes on step 3700 is 116459
percolate: changes on step 3800 is 116783
percolate: changes on step 3900 is 108886
percolate: changes on step 4000 is 104322
percolate: changes on step 4100 is 99108
percolate: changes on step 4200 is 89085
percolate: changes on step 4300 is 75044
percolate: changes on step 4400 is 58404
percolate: changes on step 4500 is 42375
percolate: changes on step 4600 is 30246
percolate: changes on step 4700 is 20460
percolate: changes on step 4800 is 14256
percolate: changes on step 4900 is 7998
percolate: changes on step 5000 is 4543
percolate: changes on step 5100 is 3044
percolate: changes on step 5200 is 2020
percolate: changes on step 5300 is 1070
percolate: changes on step 5400 is 581
percolate: changes on step 5500 is 222
percolate: changes on step 5600 is 0
percolate: changes on step 5700 is 0
percolate: changes on step 5800 is 0
percolate: changes on step 5900 is 0
percolate: changes on step 6000 is 0
percolate: changes on step 6100 is 0
percolate: changes on step 6200 is 0
percolate: changes on step 6300 is 0
percolate: changes on step 6400 is 0
percolate: changes on step 6500 is 0
percolate: changes on step 6600 is 0
percolate: changes on step 6700 is 0
percolate: changes on step 6800 is 0
percolate: changes on step 6900 is 0
percolate: changes on step 7000 is 0
percolate: changes on step 7100 is 0
percolate: changes on step 7200 is 0
percolate: changes on step 7300 is 0
percolate: changes on step 7400 is 0
percolate: changes on step 7500 is 0
percolate: changes on step 7600 is 0
percolate: cluster DOES percolate
mapwrite: visualising the largest 4 clusters
mapwrite: cluster sizes are 953954, 11518, 10633, 6085
mapwrite: opening file <map.pgm>
mapwrite: writing data ...
mapwrite: ... done
mapwrite: file closed
